<?xml version="1.0" encoding="utf-8"?>
<!-- Generator: Adobe Illustrator 21.1.0, SVG Export Plug-In . SVG Version: 6.00 Build 0)  -->
<svg version="1.1" id="Calque_1" xmlns="http://www.w3.org/2000/svg" xmlns:xlink="http://www.w3.org/1999/xlink" x="0px" y="0px"
	 viewBox="0 0 250 250" style="enable-background:new 0 0 250 250;" xml:space="preserve">
<style type="text/css">
	.st0{fill:#FFFFFF;}
	.st1{fill:#EEC315;}
	.st2{clip-path:url(#SVGID_2_);fill:none;stroke:#1E639E;stroke-width:7.2804;stroke-linecap:round;stroke-miterlimit:10;}
	.st3{fill:#F6D850;}
	.st4{fill:none;stroke:#EEC315;stroke-width:4.506;stroke-miterlimit:10;}
	.st5{fill:#A7D1E5;}
	.st6{fill:#1E639E;}
</style>
<g>
	<circle class="st0" cx="124.9" cy="125.6" r="91.1"/>
	<path class="st1" d="M87.3,152.1c-7.9,0-7.9-6.5-7.9-8.6V85.2c0-2.1,1.7-3.9,3.9-3.9h67.5c2.1,0-15.9,1.7-15.9,3.9v63.1
		c0,2.1-1.7,3.9-3.9,3.9L87.3,152.1L87.3,152.1z"/>
	<g>
		<defs>
			<circle id="SVGID_1_" cx="126.2" cy="125" r="88.2"/>
		</defs>
		<clipPath id="SVGID_2_">
			<use xlink:href="#SVGID_1_"  style="overflow:visible;"/>
		</clipPath>
		<path class="st2" d="M38,84.4l179.3,0"/>
	</g>
	<path class="st0" d="M94.9,174.7c-2.2,0-7.4-0.8-7.4-8.5l0-83.1h76.3c0.9,0,1.6,0.7,1.6,1.6v81.4c0,0.9-0.2,8.5-6.8,8.5L94.9,174.7
		z"/>
	<path class="st3" d="M163.3,85.4v80.8c0,0.8-0.2,2.6-1,4.1c-0.8,1.5-1.8,2.1-3.5,2.1H94.9c-2.7,0-3.6-1.1-4.2-2.2
		c-0.9-1.7-0.9-3.7-0.9-4.1l0-80.8L163.3,85.4 M163.9,80.9H85.3l0,85.3c0,2.1,0.7,10.7,9.6,10.7h63.8c8.1,0,9-8.6,9-10.7V84.7
		C167.8,82.6,166.1,80.9,163.9,80.9L163.9,80.9z"/>
	<path class="st4" d="M89.9,163h73.6"/>
	<path class="st5" d="M125,30c-52.4,0-95,42.6-95,95c0,1,0,2.1,0.1,3.1c3.6-3,7.2-5.8,11.1-8.4c2.7-43.9,39.3-78.8,83.9-78.8
		s81.1,34.9,83.9,78.8c3.8,2.6,7.5,5.4,11.1,8.4c0-1,0.1-2.1,0.1-3.1C220,72.6,177.4,30,125,30L125,30z"/>
	<path class="st6" d="M208.9,119.7c0.1,1.8,0.2,3.5,0.2,5.3c0,2.7-0.1,5.4-0.4,8.1c-4.1,42.6-40.1,76-83.7,76s-79.6-33.4-83.7-76
		c-0.3-2.7-0.4-5.4-0.4-8.1c0-1.8,0.1-3.5,0.2-5.3c-3.8,2.6-7.5,5.4-11.1,8.4c0.1,4.6,0.6,9,1.4,13.4C39.3,186.1,78.2,220,125,220
		c46.8,0,85.7-34,93.6-78.5c0.8-4.4,1.2-8.8,1.4-13.4C216.4,125.1,212.7,122.3,208.9,119.7L208.9,119.7z"/>
</g>
</svg>
